<?xml version="1.0" encoding="UTF-8" standalone="no"?>
<!DOCTYPE svg PUBLIC "-//W3C//DTD SVG 1.1//EN"
 "http://www.w3.org/Graphics/SVG/1.1/DTD/svg11.dtd">
<!-- Generated by graphviz version 2.26.3 (20100126.1600)
 -->
<!-- Title: G Pages: 1 -->
<svg width="646pt" height="786pt" xmlns="http://www.w3.org/2000/svg" xmlns:xlink="http://www.w3.org/1999/xlink">
<script xlink:href="/javascripts/SVGPan.js" />
<g id="viewport" class="graph" transform="scale(1 1) rotate(0) translate(4 782)">
<title>G</title>
<polygon fill="white" stroke="white" points="-4,5 -4,-782 643,-782 643,5 -4,5"/>
<!-- BB_Entry -->
<g id="node1" class="node"><title>BB_Entry</title>
<polygon fill="none" stroke="black" points="342,-778 222,-778 222,-734 342,-734 342,-778"/>
<text text-anchor="middle" x="282" y="-761.4" font-family="Times Roman,serif" font-size="14.00">BB_Entry</text>
<text text-anchor="middle" x="282" y="-743.4" font-family="Times Roman,serif" font-size="14.00">/*entry node*/ </text>
</g>
<!-- BB_0 -->
<g id="node3" class="node"><title>BB_0</title>
<polygon fill="none" stroke="black" points="564,-696 1.7053e-13,-696 5.68434e-14,-438 564,-438 564,-696"/>
<text text-anchor="middle" x="282" y="-679.4" font-family="Times Roman,serif" font-size="14.00">BB_0</text>
<text text-anchor="middle" x="282" y="-661.4" font-family="Times Roman,serif" font-size="14.00">addr 0x0 @asm &quot;cmp &#160;&#160;&#160;%eax,%ebx&quot;</text>
<text text-anchor="middle" x="282" y="-643.4" font-family="Times Roman,serif" font-size="14.00">label pc_0x0</text>
<text text-anchor="middle" x="282" y="-625.4" font-family="Times Roman,serif" font-size="14.00">T_t:u32 = R_EBX:u32 &#45; R_EAX:u32</text>
<text text-anchor="middle" x="282" y="-607.4" font-family="Times Roman,serif" font-size="14.00">R_CF:bool = R_EBX:u32 &lt; R_EAX:u32</text>
<text text-anchor="middle" x="282" y="-589.4" font-family="Times Roman,serif" font-size="14.00">R_OF:bool = high:bool((R_EBX:u32 ^ R_EAX:u32) &amp; (R_EBX:u32 ^ T_t:u32))</text>
<text text-anchor="middle" x="282" y="-571.4" font-family="Times Roman,serif" font-size="14.00">R_AF:bool = 0x10:u32 == (0x10:u32 &amp; (T_t:u32 ^ R_EBX:u32 ^ R_EAX:u32))</text>
<text text-anchor="middle" x="282" y="-553.4" font-family="Times Roman,serif" font-size="14.00">R_PF:bool =</text>
<text text-anchor="middle" x="282" y="-535.4" font-family="Times Roman,serif" font-size="14.00"> &#160;~low:bool(T_t:u32 &gt;&gt; 7:u32 ^ T_t:u32 &gt;&gt; 6:u32 ^ T_t:u32 &gt;&gt; 5:u32 ^</text>
<text text-anchor="middle" x="282" y="-517.4" font-family="Times Roman,serif" font-size="14.00"> &#160;&#160;&#160;&#160;&#160;&#160;&#160;&#160;&#160;&#160;&#160;T_t:u32 &gt;&gt; 4:u32 ^ T_t:u32 &gt;&gt; 3:u32 ^ T_t:u32 &gt;&gt; 2:u32 ^</text>
<text text-anchor="middle" x="282" y="-499.4" font-family="Times Roman,serif" font-size="14.00"> &#160;&#160;&#160;&#160;&#160;&#160;&#160;&#160;&#160;&#160;&#160;T_t:u32 &gt;&gt; 1:u32 ^ T_t:u32)</text>
<text text-anchor="middle" x="282" y="-481.4" font-family="Times Roman,serif" font-size="14.00">R_SF:bool = high:bool(T_t:u32)</text>
<text text-anchor="middle" x="282" y="-463.4" font-family="Times Roman,serif" font-size="14.00">R_ZF:bool = 0:u32 == T_t:u32</text>
</g>
<!-- BB_Entry&#45;&gt;BB_0 -->
<g id="edge2" class="edge"><title>BB_Entry&#45;&gt;BB_0</title>
<path fill="none" stroke="black" d="M282,-733.949C282,-726.201 282,-716.829 282,-706.525"/>
<polygon fill="black" stroke="black" points="285.5,-706.383 282,-696.383 278.5,-706.383 285.5,-706.383"/>
</g>
<!-- BB_Exit -->
<g id="node2" class="node"><title>BB_Exit</title>
<polygon fill="none" stroke="black" points="337,-44 227,-44 227,-1.06581e-14 337,-0 337,-44"/>
<text text-anchor="middle" x="282" y="-27.4" font-family="Times Roman,serif" font-size="14.00">BB_Exit</text>
<text text-anchor="middle" x="282" y="-9.4" font-family="Times Roman,serif" font-size="14.00">/*exit node*/ </text>
</g>
<!-- BB_1 -->
<g id="node4" class="node"><title>BB_1</title>
<polygon fill="none" stroke="black" points="461,-400 103,-400 103,-304 461,-304 461,-400"/>
<text text-anchor="middle" x="282" y="-383.4" font-family="Times Roman,serif" font-size="14.00">BB_1</text>
<text text-anchor="middle" x="282" y="-365.4" font-family="Times Roman,serif" font-size="14.00">cjmp R_EAX:u32 &lt; R_EBX:u32, 6:u32, &quot;nocjmp0&quot;</text>
<text text-anchor="middle" x="282" y="-347.4" font-family="Times Roman,serif" font-size="14.00">label pc_0x2</text>
<text text-anchor="middle" x="282" y="-329.4" font-family="Times Roman,serif" font-size="14.00">addr 0x2 @asm &quot;ja &#160;&#160;&#160;&#160;0x0000000000000006&quot;</text>
</g>
<!-- BB_0&#45;&gt;BB_1 -->
<g id="edge4" class="edge"><title>BB_0&#45;&gt;BB_1</title>
<path fill="none" stroke="black" d="M282,-437.901C282,-428.286 282,-418.911 282,-410.102"/>
<polygon fill="black" stroke="black" points="285.5,-410.04 282,-400.04 278.5,-410.04 285.5,-410.04"/>
</g>
<!-- BB_2 -->
<g id="node5" class="node"><title>BB_2</title>
<polygon fill="none" stroke="black" points="365,-250 199,-250 199,-82 365,-82 365,-250"/>
<text text-anchor="middle" x="282" y="-233.4" font-family="Times Roman,serif" font-size="14.00">BB_2</text>
<text text-anchor="middle" x="282" y="-215.4" font-family="Times Roman,serif" font-size="14.00">label nocjmp0</text>
<text text-anchor="middle" x="282" y="-197.4" font-family="Times Roman,serif" font-size="14.00">addr 0x4 @asm &quot;nop&quot;</text>
<text text-anchor="middle" x="282" y="-179.4" font-family="Times Roman,serif" font-size="14.00">label pc_0x4</text>
<text text-anchor="middle" x="282" y="-161.4" font-family="Times Roman,serif" font-size="14.00">addr 0x5 @asm &quot;nop&quot;</text>
<text text-anchor="middle" x="282" y="-143.4" font-family="Times Roman,serif" font-size="14.00">label pc_0x5</text>
<text text-anchor="middle" x="282" y="-125.4" font-family="Times Roman,serif" font-size="14.00">addr 0x6 @asm &quot;nop&quot;</text>
<text text-anchor="middle" x="282" y="-107.4" font-family="Times Roman,serif" font-size="14.00">label pc_0x6</text>
</g>
<!-- BB_1&#45;&gt;BB_2 -->
<g id="edge6" class="edge"><title>BB_1&#45;&gt;BB_2</title>
<path fill="none" stroke="black" d="M165.617,-303.982C160.036,-298.588 155.073,-292.613 151,-286 132.366,-255.746 157.033,-228.42 189.802,-207.513"/>
<polygon fill="black" stroke="black" points="192.033,-210.253 198.756,-202.064 188.394,-204.273 192.033,-210.253"/>
<text text-anchor="middle" x="272" y="-273.4" font-family="Times Roman,serif" font-size="14.00">R_EAX:u32 &lt; R_EBX:u32 == false</text>
</g>
<!-- BB_1&#45;&gt;BB_2 -->
<g id="edge8" class="edge"><title>BB_1&#45;&gt;BB_2</title>
<path fill="none" stroke="black" d="M379.615,-303.647C384.782,-298.301 389.342,-292.431 393,-286 406.619,-262.058 393.956,-239.022 372.983,-219.646"/>
<polygon fill="black" stroke="black" points="375.098,-216.848 365.247,-212.949 370.517,-222.141 375.098,-216.848"/>
<text text-anchor="middle" x="518" y="-273.4" font-family="Times Roman,serif" font-size="14.00">R_EAX:u32 &lt; R_EBX:u32 == true</text>
</g>
<!-- BB_2&#45;&gt;BB_Exit -->
<g id="edge10" class="edge"><title>BB_2&#45;&gt;BB_Exit</title>
<path fill="none" stroke="black" d="M282,-81.818C282,-72.0377 282,-62.5663 282,-54.1542"/>
<polygon fill="black" stroke="black" points="285.5,-54.1217 282,-44.1217 278.5,-54.1218 285.5,-54.1217"/>
</g>
</g>
</svg>
