<?xml version="1.0" encoding="UTF-8" standalone="no"?>
<!DOCTYPE svg PUBLIC "-//W3C//DTD SVG 1.1//EN"
 "http://www.w3.org/Graphics/SVG/1.1/DTD/svg11.dtd">
<!-- Generated by graphviz version 2.26.3 (20100126.1600)
 -->
<!-- Title: G Pages: 1 -->
<svg width="407pt" height="468pt" xmlns="http://www.w3.org/2000/svg" xmlns:xlink="http://www.w3.org/1999/xlink">
<script xlink:href="/javascripts/SVGPan.js" />
<g id="viewport" class="graph" transform="scale(1 1) rotate(0) translate(4 464)">
<title>G</title>
<polygon fill="white" stroke="white" points="-4,5 -4,-464 404,-464 404,5 -4,5"/>
<!-- BB_Entry -->
<g id="node1" class="node"><title>BB_Entry</title>
<polygon fill="none" stroke="black" points="184,-460 64,-460 64,-416 184,-416 184,-460"/>
<text text-anchor="middle" x="124" y="-443.4" font-family="Times Roman,serif" font-size="14.00">BB_Entry</text>
<text text-anchor="middle" x="124" y="-425.4" font-family="Times Roman,serif" font-size="14.00">/*entry node*/ </text>
</g>
<!-- BB_0 -->
<g id="node3" class="node"><title>BB_0</title>
<polygon fill="none" stroke="black" points="185,-378 63,-378 63,-334 185,-334 185,-378"/>
<text text-anchor="middle" x="124" y="-361.4" font-family="Times Roman,serif" font-size="14.00">BB_0</text>
<text text-anchor="middle" x="124" y="-343.4" font-family="Times Roman,serif" font-size="14.00">x:u32 = 0:u32 </text>
</g>
<!-- BB_Entry&#45;&gt;BB_0 -->
<g id="edge2" class="edge"><title>BB_Entry&#45;&gt;BB_0</title>
<path fill="none" stroke="black" d="M124,-415.593C124,-407.118 124,-397.297 124,-388.104"/>
<polygon fill="black" stroke="black" points="127.5,-388.096 124,-378.096 120.5,-388.096 127.5,-388.096"/>
</g>
<!-- BB_Exit -->
<g id="node2" class="node"><title>BB_Exit</title>
<polygon fill="none" stroke="black" points="179,-44 69,-44 69,-1.06581e-14 179,-0 179,-44"/>
<text text-anchor="middle" x="124" y="-27.4" font-family="Times Roman,serif" font-size="14.00">BB_Exit</text>
<text text-anchor="middle" x="124" y="-9.4" font-family="Times Roman,serif" font-size="14.00">/*exit node*/ </text>
</g>
<!-- BB_1 -->
<g id="node4" class="node"><title>BB_1</title>
<polygon fill="none" stroke="black" points="248,-296 7.10543e-14,-296 1.42109e-14,-180 248,-180 248,-296"/>
<text text-anchor="middle" x="124" y="-279.4" font-family="Times Roman,serif" font-size="14.00">BB_1</text>
<text text-anchor="middle" x="124" y="-261.4" font-family="Times Roman,serif" font-size="14.00">label loop</text>
<text text-anchor="middle" x="124" y="-243.4" font-family="Times Roman,serif" font-size="14.00">x_83:u32 = phi(x:u32, x_84:u32)</text>
<text text-anchor="middle" x="124" y="-225.4" font-family="Times Roman,serif" font-size="14.00">x_84:u32 = x_83:u32 + 1:u32</text>
<text text-anchor="middle" x="124" y="-207.4" font-family="Times Roman,serif" font-size="14.00">temp:bool = 3:u32 &lt; x_84:u32</text>
<text text-anchor="middle" x="124" y="-189.4" font-family="Times Roman,serif" font-size="14.00">cjmp temp:bool, &quot;done&quot;, &quot;loop&quot;</text>
</g>
<!-- BB_0&#45;&gt;BB_1 -->
<g id="edge4" class="edge"><title>BB_0&#45;&gt;BB_1</title>
<path fill="none" stroke="black" d="M124,-333.805C124,-325.877 124,-316.473 124,-306.704"/>
<polygon fill="black" stroke="black" points="127.5,-306.438 124,-296.438 120.5,-306.438 127.5,-306.438"/>
</g>
<!-- BB_1&#45;&gt;BB_1 -->
<g id="edge6" class="edge"><title>BB_1&#45;&gt;BB_1</title>
<path fill="none" stroke="black" d="M248.149,-249.222C259.123,-246.862 266,-243.121 266,-238 266,-234.639 263.038,-231.873 257.9,-229.701"/>
<polygon fill="black" stroke="black" points="258.733,-226.297 248.149,-226.778 256.722,-233.002 258.733,-226.297"/>
<text text-anchor="middle" x="332.5" y="-234.4" font-family="Times Roman,serif" font-size="14.00">temp:bool == false</text>
</g>
<!-- BB_2 -->
<g id="node5" class="node"><title>BB_2</title>
<polygon fill="none" stroke="black" points="202,-126 46,-126 46,-82 202,-82 202,-126"/>
<text text-anchor="middle" x="124" y="-109.4" font-family="Times Roman,serif" font-size="14.00">BB_2</text>
<text text-anchor="middle" x="124" y="-91.4" font-family="Times Roman,serif" font-size="14.00">label done halt true </text>
</g>
<!-- BB_1&#45;&gt;BB_2 -->
<g id="edge8" class="edge"><title>BB_1&#45;&gt;BB_2</title>
<path fill="none" stroke="black" d="M124,-179.615C124,-164.849 124,-149.514 124,-136.546"/>
<polygon fill="black" stroke="black" points="127.5,-136.273 124,-126.273 120.5,-136.273 127.5,-136.273"/>
<text text-anchor="middle" x="189.5" y="-149.4" font-family="Times Roman,serif" font-size="14.00">temp:bool == true</text>
</g>
<!-- BB_2&#45;&gt;BB_Exit -->
<g id="edge10" class="edge"><title>BB_2&#45;&gt;BB_Exit</title>
<path fill="none" stroke="black" d="M124,-81.5931C124,-73.1177 124,-63.2974 124,-54.104"/>
<polygon fill="black" stroke="black" points="127.5,-54.0958 124,-44.0959 120.5,-54.0959 127.5,-54.0958"/>
</g>
</g>
</svg>
